{
    "KPlugin": {
        "Authors": [
            {
                "Email": "plasma-devel@kde.org",
                "Name": "KDE Visual Design Group",
                "Name[ar]": "مجموعة التصميم المرئي لكدي",
                "Name[az]": "KDE Vizual Dizayn Qrupu",
                "Name[be]": "Суполка візуальнага дызайну KDE",
                "Name[bg]": "KDE Visual Design Group",
                "Name[ca@valencia]": "Grup de disseny visual de KDE",
                "Name[ca]": "Grup de disseny visual de KDE",
                "Name[cs]": "Skupina vizuálního návrhu KDE",
                "Name[da]": "KDE Visual Design Group",
                "Name[de]": "KDE Visual Design Group",
                "Name[en_GB]": "KDE Visual Design Group",
                "Name[es]": "El grupo de diseño visual de KDE",
                "Name[eu]": "KDE Diseinu bisualeko taldea",
                "Name[fi]": "KDE:n visuaalinen suunnitteluryhmä",
                "Name[fr]": "Groupe de conception visuelle de KDE",
                "Name[hu]": "KDE Visual Design Group",
                "Name[ia]": "KDE Visual Design Group (Gruppo de Designo Visual de KDE)",
                "Name[id]": "Grup Desain Visual KDE",
                "Name[is]": "Myndrænn hönnunarhópur KDE",
                "Name[it]": "KDE Visual Design Group",
                "Name[ja]": "KDE Visual Design Group",
                "Name[ka]": "KDE-ის ვიზუალური დიზაინის ჯგუფი",
                "Name[ko]": "KDE 시각 디자인 그룹",
                "Name[lt]": "KDE vaizdinio dizaino grupė",
                "Name[nl]": "KDE Visuele ontwerpgroep",
                "Name[nn]": "KDE Visual Design Group",
                "Name[pl]": "Grupa oprawy graficznej KDE",
                "Name[pt]": "Grupo de Desenho Visual do KDE",
                "Name[pt_BR]": "Grupo de Design Visual do KDE",
                "Name[ro]": "KDE Visual Design Group",
                "Name[ru]": "Группа KDE Visual Design",
                "Name[sk]": "KDE Visual Design Group",
                "Name[sl]": "Skupina vizualnega designa KDE",
                "Name[sv]": "KDE:s visuella designgrupp",
                "Name[ta]": "கே.டீ.யீ. வரைகலை வடிவமைப்புக் குழு",
                "Name[tr]": "KDE Görsel Tasarım Grubu",
                "Name[uk]": "Група з візуального дизайну KDE",
                "Name[vi]": "Đội Thiết kế Trực quan KDE",
                "Name[x-test]": "xxKDE Visual Design Groupxx",
                "Name[zh_CN]": "KDE 视觉设计团队"
            }
        ],
        "Category": "",
        "Description": "Breeze Twilight by the KDE VDG",
        "Description[ar]": "نسيم الفجر من مجموعة تصميم كدي",
        "Description[az]": "KDE VDG tərəfindən Breeze Toranlıq",
        "Description[be]": "Breeze Twilight ад KDE VDG",
        "Description[bg]": "Breeze Здрач от KDE VDG",
        "Description[ca@valencia]": "Brisa crepuscular, creat pel VDG de KDE",
        "Description[ca]": "Brisa crepuscular, creat pel VDG del KDE",
        "Description[cs]": "Breeze Twilight od KDE VDG",
        "Description[da]": "Breeze Twilight af KDE VDG",
        "Description[de]": "Breeze Dämmerung von der KDE VG",
        "Description[en_GB]": "Breeze Twilight by the KDE VDG",
        "Description[es]": "Brisa crepúsculo por KDE VDG",
        "Description[et]": "Breeze videvik KDE VDG-lt",
        "Description[eu]": "Breeze ilunabarra KDEren VDGk egina",
        "Description[fi]": "Hämärä Breeze KDE VDG:ltä",
        "Description[fr]": "Breeze clair-obscur par l'équipe de conception visuelle de KDE « VDG »",
        "Description[hu]": "Breeze Twilight a KDE VDG-től",
        "Description[ia]": "Brisa Crepusculo (Breeze Twilight) per KDE VDG",
        "Description[id]": "Breeze Twilight oleh KDE VDG",
        "Description[is]": "Breeze Twilight frá KDE VDG",
        "Description[it]": "Brezza crepuscolo del VDG di KDE",
        "Description[ja]": "Breeze Twilight by the KDE VDG",
        "Description[ko]": "KDE 시각 디자인 그룹에서 제작한 새벽의 Breeze",
        "Description[lt]": "Breeze prieblanda pagal KDE VDG",
        "Description[nl]": "Breeze Twilight door de KDE VDG",
        "Description[nn]": "Breeze skumring frå KDE VDG",
        "Description[pl]": "Półmroczna bryza autorstwa KDE VDG",
        "Description[pt]": "Brisa ao Anoitecer da VDG do KDE",
        "Description[pt_BR]": "Breeze Twilight pelo KDE VDG",
        "Description[ro]": "Briză, amurg, de KDE VDG",
        "Description[ru]": "Оформление рабочей среды Breeze Twilight от KDE VDG",
        "Description[sk]": "Vánok Súmrak od KDE VDG",
        "Description[sl]": "Sapica ob mraku avtorjev KDE VDG",
        "Description[sv]": "Breeze skymning av KDE:s visuella designgrupp",
        "Description[tr]": "KDE VDG'den Esinti Gündoğumu",
        "Description[uk]": "Сутінкова Breeze, автори — KDE VDG",
        "Description[vi]": "Breeze Chạng vạng, do KDE VDG",
        "Description[x-test]": "xxBreeze Twilight by the KDE VDGxx",
        "Description[zh_CN]": "Breeze 微风阴阳主题，由 KDE VDG (视觉设计团队) 设计制作",
        "Description[zh_TW]": "由 KDE VDG 設計的 Breeze Twilight",
        "Id": "org.kde.breezetwilight.desktop",
        "License": "GPLv2+",
        "Name": "Breeze Twilight",
        "Name[ar]": "نسيم الفجر",
        "Name[az]": "Breeze Toranlıq",
        "Name[be]": "Breeze Twilight",
        "Name[bg]": "Breeze Здрач",
        "Name[ca@valencia]": "Brisa crepuscular",
        "Name[ca]": "Brisa crepuscular",
        "Name[cs]": "Breeze Twilight",
        "Name[da]": "Breeze Twilight",
        "Name[de]": "Breeze Dämmerung",
        "Name[en_GB]": "Breeze Twilight",
        "Name[es]": "Brisa crepúsculo",
        "Name[et]": "Breeze videvik",
        "Name[eu]": "Breeze ilunabarra",
        "Name[fi]": "Hämärä Breeze",
        "Name[fr]": "Breeze clair-obscur ",
        "Name[hi]": "ब्रीज़ गोधूली",
        "Name[hu]": "Breeze Twilight",
        "Name[ia]": "Brisa Crepusculo (Breeze Twilight)",
        "Name[id]": "Breeze Twilight",
        "Name[is]": "Breeze Twilight",
        "Name[it]": "Brezza crepuscolo",
        "Name[ja]": "Breeze Twilight",
        "Name[ka]": "ნიავი ღია",
        "Name[ko]": "새벽의 Breeze",
        "Name[lt]": "Breeze prieblanda",
        "Name[nl]": "Breeze Twilight",
        "Name[nn]": "Breeze skumring",
        "Name[pa]": "ਬਰੀਜ਼ ਆਥਣ",
        "Name[pl]": "Półmroczna bryza",
        "Name[pt]": "Brisa ao Anoitecer",
        "Name[pt_BR]": "Breeze Twilight",
        "Name[ro]": "Briză, amurg",
        "Name[ru]": "Breeze Twilight",
        "Name[sk]": "Vánok Súmrak",
        "Name[sl]": "Sapica ob mraku",
        "Name[sv]": "Breeze skymning",
        "Name[ta]": "கலந்த பிரீஸ்",
        "Name[tg]": "Насими нимторикӣ",
        "Name[tr]": "Esinti Gündoğumu",
        "Name[uk]": "Сутінкова Breeze",
        "Name[vi]": "Breeze Chạng vạng",
        "Name[x-test]": "xxBreeze Twilightxx",
        "Name[zh_CN]": "Breeze 微风阴阳",
        "ServiceTypes": [
            "Plasma/LookAndFeel"
        ],
        "Version": "2.0",
        "Website": "https://www.kde.org"
    },
    "X-Plasma-MainScript": "defaults"
}
