{
    "KPlugin": {
        "Authors": [
            {
                "Email": "wilderkde@gmail.com",
                "Name": "The Plasma Team",
                "Name[ar]": "فريق بلازما",
                "Name[az]": "Plasma komandası",
                "Name[be]": "Каманда Plasma",
                "Name[bg]": "Екипът на Plasma",
                "Name[ca@valencia]": "L'equip de Plasma",
                "Name[ca]": "L'equip del Plasma",
                "Name[cs]": "Team Plasma",
                "Name[de]": "Das Plasma-Team",
                "Name[en_GB]": "The Plasma Team",
                "Name[es]": "El equipo de Plasma",
                "Name[et]": "Plasma meeskond",
                "Name[eu]": "Plasma taldea",
                "Name[fi]": "Plasma-työryhmä",
                "Name[fr]": "L'équipe de Plasma",
                "Name[hu]": "A Plasma fejlesztői",
                "Name[ia]": "Le equipa de Plasma",
                "Name[id]": "Tim Plasma",
                "Name[is]": "Plasma-þróunarhópurinn",
                "Name[it]": "La squadra di Plasma",
                "Name[ja]": "Plasma チーム",
                "Name[ka]": "Plasma-ის გუნდი",
                "Name[ko]": "Plasma 팀",
                "Name[lt]": "Plasma komanda",
                "Name[nl]": "Het team van Plasma",
                "Name[nn]": "Utviklingslaget for Plasma",
                "Name[pa]": "ਪਲਾਜ਼ਮਾ ਟੀਮ",
                "Name[pl]": "Zespół Plazmy",
                "Name[pt]": "A Equipa do Plasma",
                "Name[pt_BR]": "Temas do Plasma",
                "Name[ro]": "Echipa Plasma",
                "Name[ru]": "Команда разработчиков Plasma",
                "Name[sk]": "Plasma Tím",
                "Name[sl]": "Ekipa Plasme",
                "Name[sv]": "Plasma-gruppen",
                "Name[ta]": "பிளாஸ்மா குழு",
                "Name[tr]": "Plasma Takımı",
                "Name[uk]": "Команда розробників Плазми",
                "Name[vi]": "Đội Plasma",
                "Name[x-test]": "xxThe Plasma Teamxx",
                "Name[zh_CN]": "Plasma 开发团队",
                "Name[zh_TW]": "Plasma 團隊"
            }
        ],
        "Category": "",
        "Description": "Tracks hot-pluggable devices as they appear and disappear.",
        "Description[ar]": "يتتبع الأجهزة القابلة للتوصيل أثناء ظهورها واختفائها.",
        "Description[az]": "Qoşulduğunda və ayrıldığında qoşulabilən cihazların izlənməsi",
        "Description[be]": "Адсочванне прылад, якія падтрымліваюць адлучэнне падчас працы, калі яны з'яўляюцца і знікаюць.",
        "Description[bg]": "Проследява появата и отделянето на устройства с директно включване.",
        "Description[ca@valencia]": "Seguix els dispositius de connexió en calent quan apareixen i desapareixen.",
        "Description[ca]": "Segueix els dispositius de connexió en calent quan apareixen i desapareixen.",
        "Description[cs]": "Oznamovat připojení a odpojení za běhu připojitelných zařízení",
        "Description[da]": "Holder styr på flytbare enheder efterhånden som de dukker op og forsvinder.",
        "Description[de]": "Überwacht Hotplug-Geräte auf Aktivierung und Deaktivierung.",
        "Description[en_GB]": "Tracks hot-pluggable devices as they appear and disappear.",
        "Description[es]": "Registra los dispositivos extraíbles cuando aparecen y desaparecen.",
        "Description[et]": "Töö ajal ühendatavate seadmete ilmumise ja kadumise jälgimine.",
        "Description[eu]": "Beroan konekta daitezkeen gailuen jarraipena egiten du, haiek agertu eta desagertu ahala.",
        "Description[fi]": "Tarkkailee ajonaikaisesti kytkettäviä laitteita.",
        "Description[fr]": "Surveille l'apparition ou la disparition de périphériques pouvant être connectés à chaud.",
        "Description[hu]": "Követi a menet közben csatolható (hot-pluggable) eszközöket.",
        "Description[ia]": "Il tracia dispositivos hot-pluggable (insertabile a calide) assi como illos appare e disappare",
        "Description[id]": "Lacak peranti yang dapat dicabut-colok ketika mereka muncul atau menghilang.",
        "Description[is]": "Fylgist með hraðtengdum tækjum um leið og þau birtast eða hverfa.",
        "Description[it]": "Sorveglia i dispositivi rimuovibili a caldo quando appaiono o scompaiono.",
        "Description[ja]": "ホットプラグ可能なデバイスが抜き差しされるのを捕捉します。",
        "Description[ko]": "장치가 연결되고 해제될 때 기록합니다.",
        "Description[lt]": "Seka greitai prijungiamų įrenginių atsiradimą ir išnykimą.",
        "Description[nl]": "Volgt inplugbare apparaten als deze verschijnen en verdwijnen.",
        "Description[nn]": "Sporar hotplug-einingar når dei dukkar opp og forsvinn.",
        "Description[pa]": "ਹਾਟ-ਪਲੱਗਯੋਗ ਡਿਵਾਈਸ ਜਾਣਕਾਰੀ, ਜਿਵੇਂ ਉਹ ਲਗਾਏ ਤੇ ਹਟਾਏ ਜਾਣਗੇ।",
        "Description[pl]": "Śledzi pojawianie i znikanie  urządzeń podłączanych \"na gorąco\".",
        "Description[pt]": "Segue os dispositivos removíveis, à medida que aparecem e desaparecem.",
        "Description[pt_BR]": "Segue os dispositivos removíveis, à medida que aparecem e desaparecem.",
        "Description[ro]": "Urmărește dispozitivele detașabile după cum apar sau dispar.",
        "Description[ru]": "Следит за появлением и исчезновением подключаемых на лету устройств.",
        "Description[sk]": "Sleduje hot-plug zariadenia pri ich zobrazení a zmiznutí.",
        "Description[sl]": "Sledi hitro priključljivim napravam, ki se pojavljajo in izginjajo.",
        "Description[sv]": "Följer enheter som kan kopplas in under spänning när de dyker upp och försvinner.",
        "Description[ta]": "எப்போதேனும் செருகி கழற்றக்கூடிய சாதனங்களை கவனிக்கும்.",
        "Description[tr]": "Takıldıklarında ve çıkarıldıklarında tak çalıştır aygıtlarını izler.",
        "Description[uk]": "Стежить за з’єднанням і від’єднанням портативних пристроїв.",
        "Description[vi]": "Theo dõi các thiết bị cắm nóng được khi chúng xuất hiện và biến mất.",
        "Description[x-test]": "xxTracks hot-pluggable devices as they appear and disappear.xx",
        "Description[zh_CN]": "跟踪热插拔设备的出现与消失。",
        "Description[zh_TW]": "追蹤熱插拔裝置的插入與拔除。",
        "Icon": "drive-removable-media-usb",
        "Id": "hotplug",
        "License": "",
        "Name": "Hotplug Events",
        "Name[ar]": "أحدات التوصيل المباشر",
        "Name[az]": "Cihaz qoşulmaları bildirişləri",
        "Name[be@latin]": "Źjaŭleńnie novych pryładaŭ",
        "Name[be]": "Падзеі падлучэння падчас працы",
        "Name[bg]": "Събития на директно включване",
        "Name[bn]": "হট-প্লাগ ঘটনাবলী",
        "Name[bs]": "Događaji vrućeg uključivanja",
        "Name[ca@valencia]": "Esdeveniments de connexió en calent",
        "Name[ca]": "Esdeveniments de connexió en calent",
        "Name[cs]": "Události hotplugu",
        "Name[csb]": "Hotplug Event",
        "Name[da]": "Hotplug-begivenheder",
        "Name[de]": "Hotplug-Ereignisse",
        "Name[el]": "Γεγονότα Hotplug",
        "Name[en_GB]": "Hotplug Events",
        "Name[eo]": "Dumkura permuteblaj eventoj",
        "Name[es]": "Eventos en caliente",
        "Name[et]": "Hotplug-sündmused",
        "Name[eu]": "Hotplug gertaerak",
        "Name[fi]": "Hotplug-tapahtumat",
        "Name[fr]": "Événements de branchement à chaud",
        "Name[fy]": "Hotplug barren",
        "Name[ga]": "Imeachtaí Hotplug",
        "Name[gl]": "Eventos de Hotplug",
        "Name[gu]": "હોટપ્લગ ઇવેન્ટ્સ",
        "Name[he]": "אירועי חיבור התקנים נשלפים",
        "Name[hi]": "हाटप्लग कार्यक्रम",
        "Name[hne]": "हाटप्लग घटना",
        "Name[hr]": "Događaji brzog uštekavanja",
        "Name[hsb]": "Hotplug-podawki",
        "Name[hu]": "Eszközcsatolást kezelő plazmoid",
        "Name[ia]": "Eventos de hotplug",
        "Name[id]": "Peristiwa Hotplug",
        "Name[is]": "Hraðtengingaatburðir",
        "Name[it]": "Eventi di collegamento a caldo",
        "Name[ja]": "Hotplug イベント",
        "Name[ka]": "ცხელი შეერთების მოვლემები",
        "Name[kk]": "Істеп турғанда қосу оқиғалар",
        "Name[km]": "ព្រឹត្តិការណ៍​ដោត​ដើរ",
        "Name[kn]": "Hotplug ಘಟನೆಗಳು (ಈವೆಂಟ್)",
        "Name[ko]": "핫플러그 이벤트",
        "Name[lt]": "Greitojo prijungimo įvykiai",
        "Name[lv]": "Hotplug notikumi",
        "Name[ml]": "ഹോട്ട്പ്ലഗ് സംഭവങ്ങള്‍",
        "Name[mr]": "हॉटप्लग घटना",
        "Name[nb]": "Tilkoblingshendelser",
        "Name[nds]": "Tokoppel-Begeefnissen",
        "Name[nl]": "Hotplug-gebeurtenissen",
        "Name[nn]": "Hotplug-hendingar",
        "Name[pa]": "ਹਾਟਪਲੱਗ ਈਵੈਂਟ",
        "Name[pl]": "Zdarzenia podłączenia \"na gorąco\"",
        "Name[pt]": "Eventos do Hotplug",
        "Name[pt_BR]": "Eventos do hotplug",
        "Name[ro]": "Evenimente de atașare",
        "Name[ru]": "Уведомление о подключении устройств",
        "Name[si]": "හොට් ප්ලග් අවස්ථා",
        "Name[sk]": "Hotplug udalosti",
        "Name[sl]": "Dogodki ob priključitvah",
        "Name[sr@ijekavian]": "догађаји врућег укључивања",
        "Name[sr@ijekavianlatin]": "događaji vrućeg uključivanja",
        "Name[sr@latin]": "događaji vrućeg uključivanja",
        "Name[sr]": "догађаји врућег укључивања",
        "Name[sv]": "Inkopplingshändelser",
        "Name[ta]": "செருக‍க்கூடியவை குறித்த நிகழ்வுகள்",
        "Name[th]": "เหตุการณ์อุปกรณ์ Hot Plug",
        "Name[tr]": "Tak Kullan Olayları",
        "Name[ug]": "قىزىق قىستۇرۇش ھادىسىسى",
        "Name[uk]": "Події гарячого підключення",
        "Name[vi]": "Các sự kiện cắm nóng",
        "Name[wa]": "Evenmints tchôd-tchôkîs",
        "Name[x-test]": "xxHotplug Eventsxx",
        "Name[zh_CN]": "热插拔事件",
        "Name[zh_TW]": "熱插拔事件",
        "Website": "https://kde.org/plasma-desktop"
    }
}
