{
    "KPlugin": {
        "Authors": [
            {
                "Email": "wilderkde@gmail.com",
                "Name": "The Plasma Team",
                "Name[ar]": "فريق بلازما",
                "Name[az]": "Plasma komandası",
                "Name[be]": "Каманда Plasma",
                "Name[bg]": "Екипът на Plasma",
                "Name[ca@valencia]": "L'equip de Plasma",
                "Name[ca]": "L'equip del Plasma",
                "Name[cs]": "Team Plasma",
                "Name[de]": "Das Plasma-Team",
                "Name[en_GB]": "The Plasma Team",
                "Name[es]": "El equipo de Plasma",
                "Name[et]": "Plasma meeskond",
                "Name[eu]": "Plasma taldea",
                "Name[fi]": "Plasma-työryhmä",
                "Name[fr]": "L'équipe de Plasma",
                "Name[hu]": "A Plasma fejlesztői",
                "Name[ia]": "Le equipa de Plasma",
                "Name[id]": "Tim Plasma",
                "Name[is]": "Plasma-þróunarhópurinn",
                "Name[it]": "La squadra di Plasma",
                "Name[ja]": "Plasma チーム",
                "Name[ka]": "Plasma-ის გუნდი",
                "Name[ko]": "Plasma 팀",
                "Name[lt]": "Plasma komanda",
                "Name[nl]": "Het team van Plasma",
                "Name[nn]": "Utviklingslaget for Plasma",
                "Name[pa]": "ਪਲਾਜ਼ਮਾ ਟੀਮ",
                "Name[pl]": "Zespół Plazmy",
                "Name[pt]": "A Equipa do Plasma",
                "Name[pt_BR]": "Temas do Plasma",
                "Name[ro]": "Echipa Plasma",
                "Name[ru]": "Команда разработчиков Plasma",
                "Name[sk]": "Plasma Tím",
                "Name[sl]": "Ekipa Plasme",
                "Name[sv]": "Plasma-gruppen",
                "Name[ta]": "பிளாஸ்மா குழு",
                "Name[tr]": "Plasma Takımı",
                "Name[uk]": "Команда розробників Плазми",
                "Name[vi]": "Đội Plasma",
                "Name[x-test]": "xxThe Plasma Teamxx",
                "Name[zh_CN]": "Plasma 开发团队",
                "Name[zh_TW]": "Plasma 團隊"
            }
        ],
        "Category": "",
        "Description": "Device data via Solid",
        "Description[ar]": "بيانات الأجهزة عبر Solid",
        "Description[az]": "Solid üzərindən cihaz məlumatları",
        "Description[be]": "Даныя цвердацелых назапашвальнікаў",
        "Description[bg]": "Данни за устройствата (чрез Solid)",
        "Description[ca@valencia]": "Dades dels dispositius via Solid",
        "Description[ca]": "Dades dels dispositius via Solid",
        "Description[cs]": "Data zařízení pomocí Solid",
        "Description[da]": "Enhedsdata via Solid",
        "Description[de]": "Gerätedaten mittels Solid",
        "Description[en_GB]": "Device data via Solid",
        "Description[es]": "Datos de dispositivo vía Solid",
        "Description[et]": "Seadmete andmed Solidi vahendusel",
        "Description[eu]": "Gailuen datuak Solid bidez",
        "Description[fi]": "Laitetietoa Solid-rajapinnalta",
        "Description[fr]": "Données de périphériques utilisant « Solid »",
        "Description[hu]": "Eszközjellemzők a Solid alrendszerből",
        "Description[ia]": "Datos de dispositivos via Solid",
        "Description[id]": "Data perangkat via Solid",
        "Description[is]": "Solid vélbúnaðarupplýsingar",
        "Description[it]": "Dati sul dispositivo con Solid",
        "Description[ja]": "Solid によるデバイスデータ",
        "Description[ka]": "მოწყობილობის მონაცემები Solid-ით",
        "Description[ko]": "Solid를 통한 장치 데이터",
        "Description[lt]": "Įrenginių duomenys per Solid",
        "Description[nl]": "Apparaatgegevens via Solid",
        "Description[nn]": "SolidDevice-data",
        "Description[pa]": "ਡਿਵਾਈਸ ਡਾਟਾ ਸਾਲਡ ਵਜੋਂ",
        "Description[pl]": "Dane urządzenia przez Solid",
        "Description[pt]": "Dados dos dispositivos através do Solid",
        "Description[pt_BR]": "Dados do dispositivo através do Solid",
        "Description[ro]": "Date despre dispozitive via Solid",
        "Description[ru]": "Сведения об устройствах от Solid",
        "Description[sk]": "Dáta zariadenia pomocou Solid",
        "Description[sl]": "Podatki o napravah s pomočjo programa Solid",
        "Description[sv]": "Enhetsdata via Solid",
        "Description[ta]": "Solid மூலம் சாதன விவரங்கள்",
        "Description[tr]": "Solid üzerinden aygıt verisi",
        "Description[uk]": "Дані щодо пристроїв з Solid",
        "Description[vi]": "Dữ liệu về thiết bị thông qua Solid",
        "Description[x-test]": "xxDevice data via Solidxx",
        "Description[zh_CN]": "通过 Solid 获得设备数据",
        "Description[zh_TW]": "來自 Solid 的裝置資料",
        "Icon": "drive-harddisk",
        "Id": "soliddevice",
        "Name": "Device Information",
        "Name[ar]": "معلومات الأجهزة",
        "Name[az]": "Cihaz haqqında",
        "Name[be@latin]": "Źviestki z pryłady",
        "Name[be]": "Звесткі пра прыладу",
        "Name[bg]": "Данни за устройства",
        "Name[bn]": "ডিভাইস তথ্য",
        "Name[bn_IN]": "ডিভাইস সংক্রান্ত তথ্য",
        "Name[bs]": "Podaci o uređajima",
        "Name[ca@valencia]": "Informació dels dispositius",
        "Name[ca]": "Informació dels dispositius",
        "Name[cs]": "Informace o zařízení",
        "Name[csb]": "Wëdowiédzô ò ùrządzeniach",
        "Name[da]": "Enhedsinformation",
        "Name[de]": "Geräteinformationen",
        "Name[el]": "Πληροφορίες συσκευής",
        "Name[en_GB]": "Device Information",
        "Name[eo]": "Aparataj Informoj",
        "Name[es]": "Información del dispositivo",
        "Name[et]": "Seadmete teave",
        "Name[eu]": "Gailuari buruzko informazioa",
        "Name[fi]": "Laitetiedot",
        "Name[fr]": "Informations sur les périphériques",
        "Name[fy]": "Apparaatynformaasje",
        "Name[ga]": "Eolas faoi Ghléas",
        "Name[gl]": "Información do dispositivo",
        "Name[gu]": "ઉપકરણ માહિતી",
        "Name[he]": "מידע על התקנים",
        "Name[hi]": "उपकरण जानकारी",
        "Name[hne]": "उपकरन जानकारी",
        "Name[hr]": "Podaci o uređaju",
        "Name[hsb]": "Informacija wo graće",
        "Name[hu]": "Eszközjellemzők",
        "Name[ia]": "Information de dispositivo",
        "Name[id]": "Informasi Peranti",
        "Name[is]": "Upplýsingar tækis",
        "Name[it]": "Informazioni sul dispositivo",
        "Name[ja]": "デバイス情報",
        "Name[ka]": "დისკის ინფორმაცია",
        "Name[kk]": "Құрылғы мәліметі",
        "Name[km]": "ព័ត៌មាន​ឧបករណ៍",
        "Name[kn]": "ಸಾಧನದ ಮಾಹಿತಿ",
        "Name[ko]": "장치 정보",
        "Name[ku]": "Agahiya Cîhazê",
        "Name[lt]": "Informacija apie įrenginius",
        "Name[lv]": "Ierīču informācija",
        "Name[mai]": "डिवायस सूचना",
        "Name[mk]": "Информации за уреди",
        "Name[ml]": "ഉപകരണ വിവരം",
        "Name[mr]": "साधन माहिती",
        "Name[nb]": "Enhetsinformasjon",
        "Name[nds]": "Reedschap-Informatschonen",
        "Name[nl]": "Apparaatinformatie",
        "Name[nn]": "Einings­informasjon",
        "Name[or]": "ଯନ୍ତ୍ର ସୂଚନା",
        "Name[pa]": "ਜੰਤਰ ਜਾਣਕਾਰੀ",
        "Name[pl]": "Informacje o urządzeniach",
        "Name[pt]": "Informação dos Dispositivos",
        "Name[pt_BR]": "Informações do dispositivo",
        "Name[ro]": "Informații dispozitiv",
        "Name[ru]": "Сведения об устройствах",
        "Name[si]": "මෙවලම් තොරතුරු",
        "Name[sk]": "Informácie o zariadení",
        "Name[sl]": "Podatki o napravah",
        "Name[sr@ijekavian]": "подаци о уређајима",
        "Name[sr@ijekavianlatin]": "podaci o uređajima",
        "Name[sr@latin]": "podaci o uređajima",
        "Name[sr]": "подаци о уређајима",
        "Name[sv]": "Enhetsinformation",
        "Name[ta]": "சாதன விவரங்கள்",
        "Name[tg]": "Иттилооти дастгоҳ",
        "Name[th]": "รายละเอียดอุปกรณ์",
        "Name[tr]": "Aygıt Bilgileri",
        "Name[ug]": "ئۈسكۈنە ئۇچۇرى",
        "Name[uk]": "Інформація про пристрої",
        "Name[vi]": "Thông tin thiết bị",
        "Name[wa]": "Informåcions so l' éndjin",
        "Name[x-test]": "xxDevice Informationxx",
        "Name[zh_CN]": "设备信息",
        "Name[zh_TW]": "裝置資訊",
        "Website": "https://kde.org/plasma-desktop"
    }
}
