{
    "KPlugin": {
        "Authors": [
            {
                "Email": "viranch.mehta@gmail.com",
                "Name": "Viranch Mehta",
                "Name[ar]": "Viranch Mehta",
                "Name[az]": "Viranch Mehta",
                "Name[be]": "Viranch Mehta",
                "Name[bg]": "Viranch Mehta",
                "Name[ca@valencia]": "Viranch Mehta",
                "Name[ca]": "Viranch Mehta",
                "Name[cs]": "Viranch Mehta",
                "Name[da]": "Viranch Mehta",
                "Name[de]": "Viranch Mehta",
                "Name[en_GB]": "Viranch Mehta",
                "Name[es]": "Viranch Mehta",
                "Name[et]": "Viranch Mehta",
                "Name[eu]": "Viranch Mehta",
                "Name[fi]": "Viranch Mehta",
                "Name[fr]": "Viranch Mehta",
                "Name[hu]": "Viranch Mehta",
                "Name[ia]": "Viranch Mehta",
                "Name[id]": "Viranch Mehta",
                "Name[is]": "Viranch Mehta",
                "Name[it]": "Viranch Mehta",
                "Name[ja]": "Viranch Mehta",
                "Name[ka]": "Viranch Mehta",
                "Name[ko]": "Viranch Mehta",
                "Name[lt]": "Viranch Mehta",
                "Name[nl]": "Viranch Mehta",
                "Name[nn]": "Viranch Mehta",
                "Name[pa]": "ਵਿਰਾਂਚ ਮਹਿਤਾ",
                "Name[pl]": "Viranch Mehta",
                "Name[pt]": "Viranch Mehta",
                "Name[pt_BR]": "Viranch Mehta",
                "Name[ro]": "Viranch Mehta",
                "Name[ru]": "Viranch Mehta",
                "Name[sk]": "Viranch Mehta",
                "Name[sl]": "Viranch Mehta",
                "Name[sv]": "Viranch Mehta",
                "Name[ta]": "விராஞ்சு மேத்தா",
                "Name[tr]": "Viranch Mehta",
                "Name[uk]": "Viranch Mehta",
                "Name[vi]": "Viranch Mehta",
                "Name[x-test]": "xxViranch Mehtaxx",
                "Name[zh_CN]": "Viranch Mehta"
            }
        ],
        "BugReportUrl": "https://bugs.kde.org/enter_bug.cgi?product=plasmashell&component=Lock/logout",
        "Category": "System Information",
        "Description": "Lock the screen or log out",
        "Description[ar]": "اقفل الشاشة أو اخرج",
        "Description[az]": "Ekranı kilidləmək və seansdan çıxış",
        "Description[be]": "Блакаванне экрана або выхад з сістэмы",
        "Description[bg]": "Заключване на екрана или изход",
        "Description[ca@valencia]": "Bloqueja la pantalla o desconnecta",
        "Description[ca]": "Bloqueja la pantalla o desconnecta",
        "Description[cs]": "Uzamknout obrazovku nebo se odhlásit",
        "Description[da]": "Lås skærmen eller log ud",
        "Description[de]": "Den Bildschirm sperren oder abmelden",
        "Description[en_GB]": "Lock the screen or log out",
        "Description[es]": "Bloquear el escritorio o salir",
        "Description[et]": "Ekraani lukustamine või väljalogimine",
        "Description[eu]": "Giltzatu pantaila edo saio-itxi",
        "Description[fi]": "Lukitse näyttö tai kirjaudu ulos",
        "Description[fr]": "Verrouiller l'écran ou se déconnecter",
        "Description[hu]": "Képernyőzárolás vagy kijelentkezés",
        "Description[ia]": "Bloca le schermo o  claude session",
        "Description[id]": "Kunci layar atau keluar log",
        "Description[is]": "Læsa skja eða skrá út",
        "Description[it]": "Blocca lo schermo o esci",
        "Description[ja]": "スクリーンのロックとログアウト",
        "Description[ka]": "ეკრანის ჩაკეტვა ან გასვლა",
        "Description[ko]": "화면을 잠그거나 로그아웃합니다",
        "Description[lt]": "Užrakinti ekraną arba atsijungti",
        "Description[nl]": "Vergrendel het scherm of meldt u af",
        "Description[nn]": "Lås skjermen eller logg ut",
        "Description[pa]": "ਸਕਰੀਨ ਲਾਕ ਜਾਂ ਲਾਗ ਆਉਟ ਕਰੋ",
        "Description[pl]": "Blokuje ekran lub wylogowuje",
        "Description[pt]": "Bloquear o ecrã ou sair",
        "Description[pt_BR]": "Bloqueia a tela ou desliga",
        "Description[ro]": "Blochează ecranul sau iese din sistem",
        "Description[ru]": "Кнопки блокирования экрана и завершения сеанса",
        "Description[sk]": "Zamknutie obrazovky alebo odhlásenie",
        "Description[sl]": "Zaklenite zaslon ali pa se odjavite",
        "Description[sv]": "Lås skärmen eller logga ut",
        "Description[ta]": "திரையைப் பூட்டு அல்லது வெளியேறு",
        "Description[tr]": "Ekranı kilitleyin veya çıkın",
        "Description[uk]": "Заблокуйте екран або вийдіть",
        "Description[vi]": "Khoá màn hình hoặc đăng xuất",
        "Description[x-test]": "xxLock the screen or log outxx",
        "Description[zh_CN]": "锁屏或注销",
        "Description[zh_TW]": "鎖定螢幕或登出",
        "EnabledByDefault": true,
        "FormFactors": [
            "desktop"
        ],
        "Icon": "system-shutdown",
        "Id": "org.kde.plasma.lock_logout",
        "License": "LGPL",
        "Name": "Lock/Logout",
        "Name[af]": "Sluit/Teken af",
        "Name[ar]": "اقفل/اخرج",
        "Name[az]": "Ekran kilidləmə və Çıxış",
        "Name[be@latin]": "Blok na ekran i vychad z systemy",
        "Name[be]": "Блакаванне / Выхад",
        "Name[bg]": "Заключване/Изход",
        "Name[bn]": "লক/লগ-আউট",
        "Name[bn_IN]": "লক/লগ-আউট করুন",
        "Name[bs]": "Zaključavanje/odjava",
        "Name[ca@valencia]": "Bloqueja/ix",
        "Name[ca]": "Bloqueja/surt",
        "Name[cs]": "Odhlášení/uzamčení",
        "Name[csb]": "Blokòwanié ekranu/Wëlogòwanié",
        "Name[da]": "Lås/Log ud",
        "Name[de]": "Bildschirmsperre/Abmeldung",
        "Name[el]": "Κλείδωμα/αποσύνδεση",
        "Name[en_GB]": "Lock/Logout",
        "Name[eo]": "Ŝloso/adiaŭo",
        "Name[es]": "Bloquear/Terminar",
        "Name[et]": "Lukustamine/väljalogimine",
        "Name[eu]": "Giltzatu/Saio-itxi",
        "Name[fi]": "Lukitus/uloskirjautuminen",
        "Name[fr]": "Verrouillage / Déconnexion",
        "Name[fy]": "Beskoattelje/ôfmelde",
        "Name[ga]": "Cuir Faoi Ghlas/Logáil Amach",
        "Name[gl]": "Trancar/Saír",
        "Name[gu]": "તાળું/બહાર નીકળો",
        "Name[he]": "נעילה/יציאה",
        "Name[hi]": "तालाबंद/लॉगआउट",
        "Name[hne]": "ताला/लागआउट",
        "Name[hr]": "Zaključavanje/odjavljivanje",
        "Name[hsb]": "Zamknjenje/Wotzjewjenje",
        "Name[hu]": "Zárolás/kijelentkezés",
        "Name[ia]": "Bloca/Claude session",
        "Name[id]": "Kunci/Logout",
        "Name[is]": "Læsa/stimpla út",
        "Name[it]": "Blocca/Esci",
        "Name[ja]": "ロック/ログアウト",
        "Name[ka]": "ჩაკეტვა/გახსნა",
        "Name[kk]": "Бұғаттау/Шығу",
        "Name[km]": "ចាក់សោ/ចេញ",
        "Name[kn]": "ಬಂಧಿಸು/ನಿರ್ಗಮಿಸು (ಲಾಗೌಟ್)",
        "Name[ko]": "잠금/로그아웃",
        "Name[ku]": "Kilît Bike/Derkeve",
        "Name[lt]": "Užrakinti/atsijungti",
        "Name[lv]": "Slēgt/Atteikties",
        "Name[mk]": "Копчиња „Заклучи/Одјави се“",
        "Name[ml]": "പൂട്ടുക/പുറത്തിറങ്ങുക",
        "Name[mr]": "कुलूपबंद/बाहेर पडा",
        "Name[nb]": "Lås/Logg ut",
        "Name[nds]": "Afsluten/Afmellen",
        "Name[ne]": "ताल्चा लगाउनुहोस्/लगआउट गर्नुहोस्",
        "Name[nl]": "Vergrendelen/Afmelden",
        "Name[nn]": "Lås / logg ut",
        "Name[or]": "ଅପରିବର୍ତ୍ତନୀୟ/ଲଗଆଉଟ କରନ୍ତୁ",
        "Name[pa]": "ਲਾਕ/ਲਾਗ ਆਉਟ",
        "Name[pl]": "Blokowanie/wylogowywanie",
        "Name[pt]": "Bloquear/Sair",
        "Name[pt_BR]": "Bloquear/encerrar sessão",
        "Name[ro]": "Blocare/Ieșire",
        "Name[ru]": "Блокирование экрана и выход",
        "Name[se]": "Lohkadeapmi/olggosčáliheapmi",
        "Name[si]": "අගුලු දමන්න/ඉවත් වන්න",
        "Name[sk]": "Zamknutie/odhlásenie",
        "Name[sl]": "Zaklepanje/odjava",
        "Name[sr@ijekavian]": "закључавање/одјава",
        "Name[sr@ijekavianlatin]": "zaključavanje/odjava",
        "Name[sr@latin]": "zaključavanje/odjava",
        "Name[sr]": "закључавање/одјава",
        "Name[sv]": "Låsning eller utloggning",
        "Name[ta]": "பூட்டு/வெளியேறு",
        "Name[te]": "లాక్/లాగ్అవుట్",
        "Name[tg]": "Қулф/Баромад",
        "Name[th]": "ล็อคหน้าจอ/ออกจากระบบ",
        "Name[tr]": "Kilitle/Çık",
        "Name[ug]": "قۇلۇپلا/تىزىمدىن چىق",
        "Name[uk]": "Блокування/Вихід",
        "Name[uz@cyrillic]": "Қулфлаш/Чиқиш",
        "Name[uz]": "Qulflash/Chiqish",
        "Name[vi]": "Khoá/Đăng xuất",
        "Name[wa]": "Serer/Dislodjî",
        "Name[x-test]": "xxLock/Logoutxx",
        "Name[zh_CN]": "锁屏/注销",
        "Name[zh_TW]": "鎖定/登出",
        "ServiceTypes": [
            "Plasma/Applet"
        ],
        "Version": "1.0",
        "Website": "https://www.kde.org/plasma-desktop"
    },
    "Keywords": "Lock;Logout;Sleep;Hibernate;Switch User;",
    "Keywords[ar]": "اقفل;اخرج;نم;أسبت;بدل المستخدم;",
    "Keywords[ast]": "Bloquiar;Bloquéu;Suspender;Suspensión;Dormir;Dormición;Ivernar;Ivernación;Hibernar;Hibernación;Cambiar d'usuariu;Cambéu d'usuariu;Cambéu d'usuarios;",
    "Keywords[az]": "Kilid;Sistemdən Çıxış;Yuxu Rejimi;Gözləmə Rejimi;İstifadəçini Dəyişmək;Lock;Logout;Sleep;Hibernate;Switch User;",
    "Keywords[bs]": "Zaključavanje;Odjava;Spavanje;Hibernacija;Promjena korisnika;",
    "Keywords[ca@valencia]": "Bloqueig;Eixida;Adorm;Hiberna;Canvi d'usuari;",
    "Keywords[ca]": "Bloqueig;Sortida;Adorm;Hiberna;Canvi d'usuari;",
    "Keywords[da]": "Lås;Log ud;Slumre;Dvale;Suspend;Skift bruger;suspender;",
    "Keywords[de]": "Sperren;Abmelden;Standby;Ruhezustand;Tiefschlaf;Benutzer wechseln;",
    "Keywords[el]": "Κλείδωμα;έξοδος;ύπνωση;νάρκη;εναλλαγήχρήστη;",
    "Keywords[en_GB]": "Lock;Logout;Sleep;Hibernate;Switch User;",
    "Keywords[es]": "Bloquear;Terminar la sesión;Dormir;Hibernar;Cambiar de usuario;",
    "Keywords[et]": "Lukustamine;Väljalogimine;Uni;Talveuni;Kasutaja vahetamine;",
    "Keywords[eu]": "giltzatu;blokeatu;saio-itxi;egin lo;hibernatu;aldatu erabiltzailea;",
    "Keywords[fi]": "Lukitse;kirjaudu ulos;valmiustila;lepotila;vaihda käyttäjää;",
    "Keywords[fr]": "Verrouillage;Déconnexion;Hibernation;Changement d'utilisateur;",
    "Keywords[gl]": "Trancar;saír;durmir;hibernar;cambiar de usuario;",
    "Keywords[he]": "Lock;Logout;Sleep;Hibernate;Switch User;נעילה;יציא;שינה;מצב שינה;החלפת משתמש",
    "Keywords[hi]": "तालाबंद;लॉगआउट;निद्रा;सुप्तावस्था;उपयोक्ता बदलें;",
    "Keywords[hsb]": "Lock;Logout;Sleep;Hibernate;Switch User;Hasnyć;Spinkać;Zymski spar;So Wotzjewić;",
    "Keywords[hu]": "Zárolás;Kijelentkezés;Alvó állapot;Hibernálás;Felhasználóváltás;",
    "Keywords[ia]": "Bloca;Claude session;Dormi; Hiberna;Cambia Usator;",
    "Keywords[id]": "Kunci;Logout;Tidur;Hibernasi;Alihkan Pengguna;",
    "Keywords[is]": "Læsa;útskrá;svæfa:leggja í dvala;Skipta um notanda;",
    "Keywords[it]": "Blocca;Esci;Sospendi;Iberna;Cambia utente;",
    "Keywords[ja]": "ロック;ログアウト;スリープ;ハイバネート;ユーザの切り替え;",
    "Keywords[kk]": "Lock;Logout;Sleep;Hibernate;Switch User;",
    "Keywords[ko]": "Lock;Logout;Sleep;Hibernate;Switch User;잠금;로그아웃;대기;대기 모드;최대 절전;최대 절전 모드;사용자 전환;",
    "Keywords[lt]": "Užrakinti;Uzrakinti;Atsijungti;Pristabdyti;Pristabdyti į RAM;Miegoti;Miegas;Miego veiksena;Miego režimas;Miego rezimas;Pristabdyti i RAM;Pristabdyti i diska;Pristabdyti į diską;Sustabdyti;Užmigdyti;Uzmigdyti;Hibernuoti;Perjungti naudotoją;Perjungti naudotoja;",
    "Keywords[ml]": "പൂട്ടുക;പുറത്തിറങ്ങുക;ഉറങ്ങുക;നിഷ്ക്രിയമാക്കുക;ഉപയോക്താവിനെ മാറ്റുക;",
    "Keywords[mr]": "कुलूप; बाहेर पडा; झोप; हायबरनेट; वापरकर्ता बदला;",
    "Keywords[nb]": "Lås; Logg ut; Hvile; Dvale; Bytt bruker;",
    "Keywords[nds]": "Slott,afsluten,afmellen,slapen,infreren,Bruker wesseln;Brukerwessel",
    "Keywords[nl]": "Vergrendelen;Afmelden;Slapen;Slaapstand naar schijf;Gebruiker wisselen;",
    "Keywords[nn]": "lås;logg ut;utlogging;kvilemodus;dvalemodus;byt brukar;",
    "Keywords[pa]": "ਲਾਕ;ਲਾਗਆਉਟ;ਸਲੀਪ;ਹਾਈਬਰਨੇਟ;ਵਰਤੋਂਕਾਰ ਬਦਲੋ;",
    "Keywords[pl]": "Zablokuj;Wyloguj;Uśpij;Hibernuj;Przełącz użytkownika;",
    "Keywords[pt]": "Bloquear;Encerrar;Suspender;Hibernar;Mudar de Utilizador;",
    "Keywords[pt_BR]": "Bloquear;Encerrar;Suspender;Hibernar;Trocar usuário;",
    "Keywords[ro]": "blochează;ieși;adormire;dormi;hibernare;schimbă utilizatorul;comutare utilizatori;",
    "Keywords[ru]": "Lock;Logout;Sleep;Hibernate;Switch User;блокировать;блокировка;выход;выход из системы;ждущий режим;спящий режим;сон;режим гибернации;гибернация;сменить пользователя;смена пользователя;",
    "Keywords[sk]": "Zamknúť;Odhlásiť;Uspať;Hibernovať;Prepnúť používateľa;",
    "Keywords[sl]": "Zaklep;Odjava;Pripravljenost;Mirovanje;Zamenjava uporabnika;",
    "Keywords[sr@ijekavian]": "Lock;Logout;Sleep;Hibernate;Switch User;закључавање;одјављивање;спавање;хибернација;пребацивање;",
    "Keywords[sr@ijekavianlatin]": "Lock;Logout;Sleep;Hibernate;Switch User;zaključavanje;odjavljivanje;spavanje;hibernacija;prebacivanje;",
    "Keywords[sr@latin]": "Lock;Logout;Sleep;Hibernate;Switch User;zaključavanje;odjavljivanje;spavanje;hibernacija;prebacivanje;",
    "Keywords[sr]": "Lock;Logout;Sleep;Hibernate;Switch User;закључавање;одјављивање;спавање;хибернација;пребацивање;",
    "Keywords[sv]": "Lås;Utloggning;Viloläge;Dvala;Byt användare;",
    "Keywords[ta]": "Lock;Logout;Sleep;Hibernate;Switch User;பூட்டு;வெளியேறு;தூங்கு;உறங்கு;உறக்கம்;தூக்கம்;பயனர் மாற்றம்;",
    "Keywords[tr]": "Kilitle;Oturumu Kapat;Beklet;Askıya Al;Kullanıcı Değiştir;",
    "Keywords[uk]": "Lock;Logout;Sleep;Hibernate;Switch User;блокування;вихід;присипляння;сон;перемикання;користувач;",
    "Keywords[vi]": "Lock;Logout;Sleep;Hibernate;Switch User;Khoá;Đăng xuất;Ngủ;Ngủ đông;Chuyển người dùng;",
    "Keywords[x-test]": "xxLockxx;xxLogoutxx;xxSleepxx;xxHibernatexx;xxSwitch Userxx;",
    "Keywords[zh_CN]": "锁定;注销;待机;睡眠;休眠;切换用户;",
    "Keywords[zh_TW]": "Lock;Logout;Sleep;Hibernate;Switch User;",
    "X-Plasma-API": "declarativeappletscript",
    "X-Plasma-MainScript": "ui/lockout.qml"
}
